…
    ## Rows: 2190 Columns: 6
    ## ── Column specification ────────────────────────────────────────────────────────
    ## Delimiter: ","
    ## chr  (2): name, id
    ## dbl  (3): prcp, tmax, tmin
    ## date (1): date
    ## 
    ## ℹ Use `spec()` to retrieve the full column specification for this data.
    ## ℹ Specify the column types or set `show_col_types = FALSE` to quiet this message.

``` r
weather_df
```

    ## # A tibble: 2,190 × 7
    ##    name           id          date        prcp  tmax  tmin month     
    ##    <chr>          <chr>       <date>     <dbl> <dbl> <dbl> <date>    
    ##  1 CentralPark_NY USW00094728 2021-01-01   157   4.4   0.6 2021-01-01
    ##  2 CentralPark_NY USW00094728 2021-01-02    13  10.6   2.2 2021-01-01
    ##  3 CentralPark_NY USW00094728 2021-01-03    56   3.3   1.1 2021-01-01
    ##  4 CentralPark_NY USW00094728 2021-01-04     5   6.1   1.7 2021-01-01
    ##  5 CentralPark_NY USW00094728 2021-01-05     0   5.6   2.2 2021-01-01
    ##  6 CentralPark_NY USW00094728 2021-01-06     0   5     1.1 2021-01-01
    ##  7 CentralPark_NY USW00094728 2021-01-07     0   5    -1   2021-01-01
    ##  8 CentralPark_NY USW00094728 2021-01-08     0   2.8  -2.7 2021-01-01
    ##  9 CentralPark_NY USW00094728 2021-01-09     0   2.8  -4.3 2021-01-01
    ## 10 CentralPark_NY USW00094728 2021-01-10     0   5    -1.6 2021-01-01
    ## # ℹ 2,180 more rows

## ‘group_by’

``` r
weather_df %>%
  group_by(name, month)
```

    ## # A tibble: 2,190 × 7
    ## # Groups:   name, month [72]
    ##    name           id          date        prcp  tmax  tmin month     
    ##    <chr>          <chr>       <date>     <dbl> <dbl> <dbl> <date>    
    ##  1 CentralPark_NY USW00094728 2021-01-01   157   4.4   0.6 2021-01-01
    ##  2 CentralPark_NY USW00094728 2021-01-02    13  10.6   2.2 2021-01-01
    ##  3 CentralPark_NY USW00094728 2021-01-03    56   3.3   1.1 2021-01-01
    ##  4 CentralPark_NY USW00094728 2021-01-04     5   6.1   1.7 2021-01-01
    ##  5 CentralPark_NY USW00094728 2021-01-05     0   5.6   2.2 2021-01-01
    ##  6 CentralPark_NY USW00094728 2021-01-06     0   5     1.1 2021-01-01
    ##  7 CentralPark_NY USW00094728 2021-01-07     0   5    -1   2021-01-01
    ##  8 CentralPark_NY USW00094728 2021-01-08     0   2.8  -2.7 2021-01-01
    ##  9 CentralPark_NY USW00094728 2021-01-09     0   2.8  -4.3 2021-01-01
    ## 10 CentralPark_NY USW00094728 2021-01-10     0   5    -1.6 2021-01-01
    ## # ℹ 2,180 more rows

## counting things

count month observations

``` r
weather_df %>%
  group_by (name, month) %>%
  summarize(n_obs = n())
```

    ## `summarise()` has grouped output by 'name'. You can override using the
    ## `.groups` argument.

    ## # A tibble: 72 × 3
    ## # Groups:   name [3]
    ##    name           month      n_obs
    ##    <chr>          <date>     <int>
    ##  1 CentralPark_NY 2021-01-01    31
    ##  2 CentralPark_NY 2021-02-01    28
    ##  3 CentralPark_NY 2021-03-01    31
    ##  4 CentralPark_NY 2021-04-01    30
    ##  5 CentralPark_NY 2021-05-01    31
    ##  6 CentralPark_NY 2021-06-01    30
    ##  7 CentralPark_NY 2021-07-01    31
    ##  8 CentralPark_NY 2021-08-01    31
    ##  9 CentralPark_NY 2021-09-01    30
    ## 10 CentralPark_NY 2021-10-01    31
    ## # ℹ 62 more rows

we can use ‘count()’

``` r
weather_df %>%
  count(name, month, name = "n_obs")
```

    ## # A tibble: 72 × 3
    ##    name           month      n_obs
    ##    <chr>          <date>     <int>
    ##  1 CentralPark_NY 2021-01-01    31
    ##  2 CentralPark_NY 2021-02-01    28
    ##  3 CentralPark_NY 2021-03-01    31
    ##  4 CentralPark_NY 2021-04-01    30
    ##  5 CentralPark_NY 2021-05-01    31
    ##  6 CentralPark_NY 2021-06-01    30
    ##  7 CentralPark_NY 2021-07-01    31
    ##  8 CentralPark_NY 2021-08-01    31
    ##  9 CentralPark_NY 2021-09-01    30
    ## 10 CentralPark_NY 2021-10-01    31
    ## # ℹ 62 more rows
…
other helpful counters

``` r
weather_df%>%
  group_by(month)%>%
  summarize(
    n_obs=n(),
    n_days=n_distinct(date)
  )
```

    ## # A tibble: 24 × 3
    ##    month      n_obs n_days
    ##    <date>     <int>  <int>
    ##  1 2021-01-01    93     31
    ##  2 2021-02-01    84     28
    ##  3 2021-03-01    93     31
    ##  4 2021-04-01    90     30
    ##  5 2021-05-01    93     31
    ##  6 2021-06-01    90     30
    ##  7 2021-07-01    93     31
    ##  8 2021-08-01    93     31
    ##  9 2021-09-01    90     30
    ## 10 2021-10-01    93     31
    ## # ℹ 14 more rows
…
``` r
weather_df %>%
  group_by(name, month)%>%
  summarize(
    mean_tmax = mean(tmax, na.rm=TRUE),
    mean_prcp = mean(prcp, na.rm = TRUE),
    median_tmin = median(tmin, no.rm=TRUE)
  )
```

    ## `summarise()` has grouped output by 'name'. You can override using the
    ## `.groups` argument.

    ## # A tibble: 72 × 5
    ## # Groups:   name [3]
    ##    name           month      mean_tmax mean_prcp median_tmin
    ##    <chr>          <date>         <dbl>     <dbl>       <dbl>
    ##  1 CentralPark_NY 2021-01-01      4.27      18.9       -0.5 
    ##  2 CentralPark_NY 2021-02-01      3.87      46.6       -1.85
    ##  3 CentralPark_NY 2021-03-01     12.3       28.0        5   
    ##  4 CentralPark_NY 2021-04-01     17.6       22.8        8.05
    ##  5 CentralPark_NY 2021-05-01     22.1       35.7       11.1 
    ##  6 CentralPark_NY 2021-06-01     28.1       22.2       18.0 
    ##  7 CentralPark_NY 2021-07-01     28.4       90.9       21.1 
    ##  8 CentralPark_NY 2021-08-01     28.8       84.5       22.2 
    ##  9 CentralPark_NY 2021-09-01     24.8       84.9       17.5 
    ## 10 CentralPark_NY 2021-10-01     19.9       43.1       13.9 
    ## # ℹ 62 more rows
…
<img src="EDA_files/figure-gfm/unnamed-chunk-10-1.png" width="90%" />

suppose you want to summarize many columns

``` r
weather_df%>%
  group_by(name, month)%>%
  summarize(across(prcp:tmin, mean))
```

    ## `summarise()` has grouped output by 'name'. You can override using the
    ## `.groups` argument.

    ## # A tibble: 72 × 5
    ## # Groups:   name [3]
    ##    name           month       prcp  tmax  tmin
    ##    <chr>          <date>     <dbl> <dbl> <dbl>
    ##  1 CentralPark_NY 2021-01-01  18.9  4.27 -1.15
    ##  2 CentralPark_NY 2021-02-01  46.6  3.87 -1.39
    ##  3 CentralPark_NY 2021-03-01  28.0 12.3   3.1 
    ##  4 CentralPark_NY 2021-04-01  22.8 17.6   7.48
    ##  5 CentralPark_NY 2021-05-01  35.7 22.1  12.2 
    ##  6 CentralPark_NY 2021-06-01  22.2 28.1  18.9 
    ##  7 CentralPark_NY 2021-07-01  90.9 28.4  20.6 
    ##  8 CentralPark_NY 2021-08-01  84.5 28.8  21.8 
    ##  9 CentralPark_NY 2021-09-01  84.9 24.8  17.8 
    ## 10 CentralPark_NY 2021-10-01  43.1 19.9  13.4 
    ## # ℹ 62 more rows
…
<img src="EDA_files/figure-gfm/unnamed-chunk-13-1.png" width="90%" />

what about window functions?

we used this code to group by name then month, then rank within each
month the days according to tmax, then filtered by coldest day

``` r
weather_df%>%
  group_by(name,month)%>%
  mutate(temp_rank = min_rank(tmax))%>%
  filter(temp_rank == 1)
```

    ## # A tibble: 92 × 8
    ## # Groups:   name, month [72]
    ##    name           id          date        prcp  tmax  tmin month      temp_rank
    ##    <chr>          <chr>       <date>     <dbl> <dbl> <dbl> <date>         <int>
    ##  1 CentralPark_NY USW00094728 2021-01-29     0  -3.8  -9.9 2021-01-01         1
    ##  2 CentralPark_NY USW00094728 2021-02-08     0  -1.6  -8.2 2021-02-01         1
    ##  3 CentralPark_NY USW00094728 2021-03-02     0   0.6  -6   2021-03-01         1
    ##  4 CentralPark_NY USW00094728 2021-04-02     0   3.9  -2.1 2021-04-01         1
    ##  5 CentralPark_NY USW00094728 2021-05-29   117  10.6   8.3 2021-05-01         1
    ##  6 CentralPark_NY USW00094728 2021-05-30   226  10.6   8.3 2021-05-01         1
    ##  7 CentralPark_NY USW00094728 2021-06-11     0  20.6  16.7 2021-06-01         1
    ##  8 CentralPark_NY USW00094728 2021-06-12     0  20.6  16.7 2021-06-01         1
    ##  9 CentralPark_NY USW00094728 2021-07-03    86  18.9  15   2021-07-01         1
    ## 10 CentralPark_NY USW00094728 2021-08-04     0  24.4  19.4 2021-08-01         1
    ## # ℹ 82 more rows

using below to flip the order of the ranking

``` r
weather_df%>%
  group_by(name,month)%>%
  mutate(temp_rank = min_rank(desc(tmax)))
```

    ## # A tibble: 2,190 × 8
    ## # Groups:   name, month [72]
    ##    name           id          date        prcp  tmax  tmin month      temp_rank
    ##    <chr>          <chr>       <date>     <dbl> <dbl> <dbl> <date>         <int>
    ##  1 CentralPark_NY USW00094728 2021-01-01   157   4.4   0.6 2021-01-01        17
    ##  2 CentralPark_NY USW00094728 2021-01-02    13  10.6   2.2 2021-01-01         1
    ##  3 CentralPark_NY USW00094728 2021-01-03    56   3.3   1.1 2021-01-01        19
    ##  4 CentralPark_NY USW00094728 2021-01-04     5   6.1   1.7 2021-01-01         9
    ##  5 CentralPark_NY USW00094728 2021-01-05     0   5.6   2.2 2021-01-01        13
    ##  6 CentralPark_NY USW00094728 2021-01-06     0   5     1.1 2021-01-01        14
    ##  7 CentralPark_NY USW00094728 2021-01-07     0   5    -1   2021-01-01        14
    ##  8 CentralPark_NY USW00094728 2021-01-08     0   2.8  -2.7 2021-01-01        20
    ##  9 CentralPark_NY USW00094728 2021-01-09     0   2.8  -4.3 2021-01-01        20
    ## 10 CentralPark_NY USW00094728 2021-01-10     0   5    -1.6 2021-01-01        14
    ## # ℹ 2,180 more rows

lag

copies the observation and shifts down by one

``` r
weather_df%>%
  group_by(name)%>%
  mutate(lag_temp = lag(tmax))
```

    ## # A tibble: 2,190 × 8
    ## # Groups:   name [3]
    ##    name           id          date        prcp  tmax  tmin month      lag_temp
    ##    <chr>          <chr>       <date>     <dbl> <dbl> <dbl> <date>        <dbl>
    ##  1 CentralPark_NY USW00094728 2021-01-01   157   4.4   0.6 2021-01-01     NA  
    ##  2 CentralPark_NY USW00094728 2021-01-02    13  10.6   2.2 2021-01-01      4.4
    ##  3 CentralPark_NY USW00094728 2021-01-03    56   3.3   1.1 2021-01-01     10.6
    ##  4 CentralPark_NY USW00094728 2021-01-04     5   6.1   1.7 2021-01-01      3.3
    ##  5 CentralPark_NY USW00094728 2021-01-05     0   5.6   2.2 2021-01-01      6.1
    ##  6 CentralPark_NY USW00094728 2021-01-06     0   5     1.1 2021-01-01      5.6
    ##  7 CentralPark_NY USW00094728 2021-01-07     0   5    -1   2021-01-01      5  
    ##  8 CentralPark_NY USW00094728 2021-01-08     0   2.8  -2.7 2021-01-01      5  
    ##  9 CentralPark_NY USW00094728 2021-01-09     0   2.8  -4.3 2021-01-01      2.8
    ## 10 CentralPark_NY USW00094728 2021-01-10     0   5    -1.6 2021-01-01      2.8
    ## # ℹ 2,180 more rows

``` r
weather_df%>%
  group_by(name)%>%
  mutate(lag_temp = lag(tmax,5))
```

    ## # A tibble: 2,190 × 8
    ## # Groups:   name [3]
    ##    name           id          date        prcp  tmax  tmin month      lag_temp
    ##    <chr>          <chr>       <date>     <dbl> <dbl> <dbl> <date>        <dbl>
    ##  1 CentralPark_NY USW00094728 2021-01-01   157   4.4   0.6 2021-01-01     NA  
    ##  2 CentralPark_NY USW00094728 2021-01-02    13  10.6   2.2 2021-01-01     NA  
    ##  3 CentralPark_NY USW00094728 2021-01-03    56   3.3   1.1 2021-01-01     NA  
    ##  4 CentralPark_NY USW00094728 2021-01-04     5   6.1   1.7 2021-01-01     NA  
    ##  5 CentralPark_NY USW00094728 2021-01-05     0   5.6   2.2 2021-01-01     NA  
    ##  6 CentralPark_NY USW00094728 2021-01-06     0   5     1.1 2021-01-01      4.4
    ##  7 CentralPark_NY USW00094728 2021-01-07     0   5    -1   2021-01-01     10.6
    ##  8 CentralPark_NY USW00094728 2021-01-08     0   2.8  -2.7 2021-01-01      3.3
    ##  9 CentralPark_NY USW00094728 2021-01-09     0   2.8  -4.3 2021-01-01      6.1
    ## 10 CentralPark_NY USW00094728 2021-01-10     0   5    -1.6 2021-01-01      5.6
    ## # ℹ 2,180 more rows
…
